{
    "name": "Advertising",
    "alias": "advertising",
    "description": "",
    "keywords": [],
    "order": 0,
    "providers": [
        "Modules\\Advertising\\Providers\\AdvertisingServiceProvider"
    ],
    "aliases": {},
    "files": [],
    "requires": []
}
